5461643482271648|08|20|940
4430510056353972|09|22|741
5424181140854741|06|22|867
4555430000275453|10|21|198
5218531015895312|04|22|108
5218531031043806|09|22|842
5491108686872785|06|24|282
4482330036541159|02|24|559
4737023041402227|04|22|402
5461252122408279|10|22|992
5175461891857577|09|22|652
4000220755109689|03|21|884